<?xml version="1.0" encoding="iso-8859-1"?>
<!-- Generator: Adobe Illustrator 16.0.0, SVG Export Plug-In . SVG Version: 6.00 Build 0)  -->
<!DOCTYPE svg PUBLIC "-//W3C//DTD SVG 1.1//EN" "http://www.w3.org/Graphics/SVG/1.1/DTD/svg11.dtd">
<svg version="1.1" id="Capa_1" xmlns="http://www.w3.org/2000/svg" xmlns:xlink="http://www.w3.org/1999/xlink" x="0px" y="0px"
	 width="79.537px" height="79.536px" viewBox="0 0 79.537 79.536" style="enable-background:new 0 0 79.537 79.536;"
	 xml:space="preserve">
<g>
	<path style="fill:#ff7c4d;" d="M46.405,6.644c0,3.669-2.972,6.633-6.636,6.633c-3.663,0-6.638-2.964-6.638-6.633S36.106,0,39.769,0
		C43.433,0,46.405,2.975,46.405,6.644z M55.171,40.78c0,0-3.484-16.93-5.142-20.329V20.44c0,0-0.005,0-0.005-0.01
		c-1.657-3.394-3.314-5.434-9.608-5.434h-0.647h-0.652c-6.294,0-7.948,2.045-9.608,5.434c0,0.01-0.005,0.01-0.005,0.01v0.011
		c-1.654,3.399-5.139,20.329-5.139,20.329c-0.259,1.142,0.453,2.281,1.598,2.54c0.158,0.041,0.324,0.062,0.476,0.062
		c0.971,0,1.846-0.673,2.074-1.647l4.709-16.751l-4.577,27.998h4.412l1.37,24.964c0,0.875,0.715,1.59,1.574,1.59
		c0.901,0,1.61-0.715,1.61-1.59l1.359-24.964h0.8h0.8l1.357,24.964c0,0.875,0.712,1.59,1.612,1.59c0.859,0,1.574-0.715,1.574-1.59
		l1.375-24.964h4.406l-4.577-27.998l4.712,16.751c0.229,0.974,1.104,1.647,2.076,1.647c0.15,0,0.316-0.021,0.477-0.062
		C54.721,43.062,55.43,41.922,55.171,40.78z"/>
</g>
	<g>
</g>
	<g>
</g>
	<g>
</g>
	<g>
</g>
	<g>
</g>
	<g>
</g>
	<g>
</g>
	<g>
</g>
	<g>
</g>
	<g>
</g>
	<g>
</g>
	<g>
</g>
	<g>
</g>
	<g>
</g>
	<g>
</g>
</svg>
