<?xml version="1.0" encoding="iso-8859-1"?>
<svg xmlns="http://www.w3.org/2000/svg" xmlns:xlink="http://www.w3.org/1999/xlink" version="1.1" id="Bar-chart-18" x="0px" y="0px" viewBox="0 0 32 32" style="enable-background:new 0 0 32 32;" xml:space="preserve">
<g>
	<path d="M4,30V0H2v5H0v2h2v3H0v2h2v3H0v2h2v3H0v2h2v3H0v2h2v4c0,0.552,0.448,1,1,1h29v-2H4z"/>
	<path d="M10,9c0,0.552,0.448,1,1,1h8c0.552,0,1-0.448,1-1V8h2V6h-2V5c0-0.552-0.448-1-1-1h-8c-0.552,0-1,0.448-1,1v1H8v2h2V9z    M12,6h6v2h-6V6z"/>
	<path d="M18,13v1h-2v2h2v1c0,0.552,0.448,1,1,1h8c0.552,0,1-0.448,1-1v-1h2v-2h-2v-1c0-0.552-0.448-1-1-1h-8   C18.448,12,18,12.448,18,13z M20,14h6v2h-6V14z"/>
	<path d="M10,25c0,0.552,0.448,1,1,1h8c0.552,0,1-0.448,1-1v-1h2v-2h-2v-1c0-0.552-0.448-1-1-1h-8c-0.552,0-1,0.448-1,1v1H8v2h2V25z    M12,22h6v2h-6V22z"/>
</g>

	<metadata>
		<rdf:RDF xmlns:rdf="http://www.w3.org/1999/02/22-rdf-syntax-ns#" xmlns:rdfs="http://www.w3.org/2000/01/rdf-schema#" xmlns:dc="http://purl.org/dc/elements/1.1/">
			<rdf:Description about="https://iconscout.com/legal#licenses" dc:title="Bar-chart-18" dc:description="Bar-chart-18" dc:publisher="Iconscout" dc:date="2017-02-16" dc:format="image/svg+xml" dc:language="en">
				<dc:creator>
					<rdf:Bag>
						<rdf:li>Unlimit Icon</rdf:li>
					</rdf:Bag>
				</dc:creator>
			</rdf:Description>
		</rdf:RDF>
    </metadata></svg>
