<?xml version="1.0" encoding="iso-8859-1"?>
<svg xmlns="http://www.w3.org/2000/svg" xmlns:xlink="http://www.w3.org/1999/xlink" version="1.1" id="Bar-chart-9" x="0px" y="0px" viewBox="0 0 32 32" style="enable-background:new 0 0 32 32;" xml:space="preserve">
<path d="M32,28H2v-3h27c0.552,0,1-0.448,1-1v-4c0-0.552-0.448-1-1-1H2v-2h9c0.552,0,1-0.448,1-1v-4c0-0.552-0.448-1-1-1H2V9h19  c0.552,0,1-0.448,1-1V4c0-0.552-0.448-1-1-1H2V0H0v4v4v4v4v4v4v5c0,0.552,0.448,1,1,1h4v2h2v-2h3v2h2v-2h3v2h2v-2h3v2h2v-2h3v2h2v-2  h5V28z M28,23h-2v-2h2V23z M24,21v2H2v-2H24z M10,15H8v-2h2V15z M6,13v2H2v-2H6z M20,7h-2V5h2V7z M16,5v2H2V5H16z"/>

	<metadata>
		<rdf:RDF xmlns:rdf="http://www.w3.org/1999/02/22-rdf-syntax-ns#" xmlns:rdfs="http://www.w3.org/2000/01/rdf-schema#" xmlns:dc="http://purl.org/dc/elements/1.1/">
			<rdf:Description about="https://iconscout.com/legal#licenses" dc:title="Bar-chart-9" dc:description="Bar-chart-9" dc:publisher="Iconscout" dc:date="2017-02-16" dc:format="image/svg+xml" dc:language="en">
				<dc:creator>
					<rdf:Bag>
						<rdf:li>Unlimit Icon</rdf:li>
					</rdf:Bag>
				</dc:creator>
			</rdf:Description>
		</rdf:RDF>
    </metadata></svg>
