<?xml version="1.0" encoding="UTF-8"?>
<svg xmlns="http://www.w3.org/2000/svg" xmlns:xlink="http://www.w3.org/1999/xlink" width="58px" height="36px" viewBox="0 0 58 36" version="1.1">
    
    <title>38 -Diagram- (Outline)</title>
    <desc>Created with Sketch.</desc>
    <defs/>
    <g id="Page-1" stroke="none" stroke-width="1" fill="none" fill-rule="evenodd">
        <g id="Icons" transform="translate(-961.000000, -712.000000)" fill="#000000">
            <g id="38--Diagram--(Outline)" transform="translate(961.000000, 712.000000)">
                <path d="M13.4141,10 L44.5861,10 L46.0001,8.586 L46.0001,7.414 L40.5861,2 L17.4141,2 L12.0001,7.414 L12.0001,8.586 L13.4141,10 Z M45.0001,12 L13.0001,12 C12.7341,12 12.4801,11.895 12.2931,11.707 L10.2931,9.708 C10.1051,9.52 10.0001,9.266 10.0001,9 L10.0001,7 C10.0001,6.735 10.1051,6.48 10.2931,6.293 L16.2931,0.293 C16.4801,0.105 16.7341,0 17.0001,0 L41.0001,0 C41.2661,0 41.5191,0.105 41.7071,0.293 L47.7071,6.293 C47.8941,6.48 48.0001,6.735 48.0001,7 L48.0001,9 C48.0001,9.266 47.8941,9.52 47.7071,9.708 L45.7071,11.707 C45.5191,11.895 45.2661,12 45.0001,12 L45.0001,12 Z" id="Fill-572"/>
                <path d="M3.4141,34 L22.5861,34 L24.0001,32.586 L24.0001,31.414 L18.5861,26 L7.4141,26 L2.0001,31.414 L2.0001,32.586 L3.4141,34 Z M23.0001,36 L3.0001,36 C2.7341,36 2.4801,35.895 2.2931,35.707 L0.2931,33.708 C0.1051,33.52 0.0001,33.266 0.0001,33 L0.0001,31 C0.0001,30.735 0.1051,30.48 0.2931,30.293 L6.2931,24.293 C6.4801,24.105 6.7341,24 7.0001,24 L19.0001,24 C19.2661,24 19.5191,24.105 19.7071,24.293 L25.7071,30.293 C25.8941,30.48 26.0001,30.735 26.0001,31 L26.0001,33 C26.0001,33.266 25.8941,33.52 25.7071,33.708 L23.7071,35.707 C23.5191,35.895 23.2661,36 23.0001,36 L23.0001,36 Z" id="Fill-573"/>
                <path d="M35.4141,34 L54.5861,34 L56.0001,32.586 L56.0001,31.414 L50.5861,26 L39.4141,26 L34.0001,31.414 L34.0001,32.586 L35.4141,34 Z M55.0001,36 L35.0001,36 C34.7341,36 34.4801,35.895 34.2931,35.707 L32.2931,33.708 C32.1051,33.52 32.0001,33.266 32.0001,33 L32.0001,31 C32.0001,30.735 32.1051,30.48 32.2931,30.293 L38.2931,24.293 C38.4801,24.105 38.7341,24 39.0001,24 L51.0001,24 C51.2661,24 51.5191,24.105 51.7071,24.293 L57.7071,30.293 C57.8941,30.48 58.0001,30.735 58.0001,31 L58.0001,33 C58.0001,33.266 57.8941,33.52 57.7071,33.708 L55.7071,35.707 C55.5191,35.895 55.2661,36 55.0001,36 L55.0001,36 Z" id="Fill-574"/>
                <path d="M29.0001,19 C28.4471,19 28.0001,18.552 28.0001,18 L28.0001,14 C28.0001,13.448 28.4471,13 29.0001,13 C29.5531,13 30.0001,13.448 30.0001,14 L30.0001,18 C30.0001,18.552 29.5531,19 29.0001,19" id="Fill-585"/>
                <path d="M45.0001,23 C44.4471,23 44.0001,22.552 44.0001,22 L44.0001,19 L14.0001,19 L14.0001,22 C14.0001,22.552 13.5531,23 13.0001,23 C12.4471,23 12.0001,22.552 12.0001,22 L12.0001,18 C12.0001,17.448 12.4471,17 13.0001,17 L45.0001,17 C45.5531,17 46.0001,17.448 46.0001,18 L46.0001,22 C46.0001,22.552 45.5531,23 45.0001,23" id="Fill-586"/>
            </g>
        </g>
    </g>

	<metadata>
		<rdf:RDF xmlns:rdf="http://www.w3.org/1999/02/22-rdf-syntax-ns#" xmlns:rdfs="http://www.w3.org/2000/01/rdf-schema#" xmlns:dc="http://purl.org/dc/elements/1.1/">
			<rdf:Description about="https://iconscout.com/legal#licenses" dc:title="diagram,chart,graph,analytics" dc:description="diagram,chart,graph,analytics" dc:publisher="Iconscout" dc:date="2017-07-24" dc:format="image/svg+xml" dc:language="en">
				<dc:creator>
					<rdf:Bag>
						<rdf:li>Smashicons .</rdf:li>
					</rdf:Bag>
				</dc:creator>
			</rdf:Description>
		</rdf:RDF>
    </metadata></svg>
