<?xml version="1.0" encoding="UTF-8"?>
<svg xmlns="http://www.w3.org/2000/svg" xmlns:xlink="http://www.w3.org/1999/xlink" width="60px" height="60px" viewBox="0 0 60 60" version="1.1">
    
    <title>52 -Diagram- (Outline)</title>
    <desc>Created with Sketch.</desc>
    <defs/>
    <g id="Page-1" stroke="none" stroke-width="1" fill="none" fill-rule="evenodd">
        <g id="Icons" transform="translate(-240.000000, -940.000000)" fill="#000000">
            <g id="52--Diagram--(Outline)" transform="translate(240.000000, 939.000000)">
                <path d="M59,61 L1,61 C0.448,61 0,60.553 0,60 C0,59.447 0.448,59 1,59 L59,59 C59.552,59 60,59.447 60,60 C60,60.553 59.552,61 59,61" id="Fill-455"/>
                <path d="M24,48.5859 L30,54.5859 L36,48.5859 L36,4.4139 L30.707,9.7069 C30.316,10.0979 29.684,10.0979 29.293,9.7069 L24,4.4139 L24,48.5859 Z M30,56.9999 C29.744,56.9999 29.488,56.9019 29.293,56.7069 L22.293,49.7069 C22.105,49.5199 22,49.2659 22,48.9999 L22,1.9999 C22,1.5959 22.244,1.2309 22.617,1.0759 C22.991,0.9189 23.42,1.0069 23.707,1.2929 L30,7.5859 L36.293,1.2929 C36.579,1.0069 37.008,0.9189 37.383,1.0759 C37.756,1.2309 38,1.5959 38,1.9999 L38,48.9999 C38,49.2659 37.895,49.5199 37.707,49.7069 L30.707,56.7069 C30.512,56.9019 30.256,56.9999 30,56.9999 L30,56.9999 Z" id="Fill-492"/>
                <path d="M30,57 C29.448,57 29,56.553 29,56 L29,9 C29,8.447 29.448,8 30,8 C30.552,8 31,8.447 31,9 L31,56 C31,56.553 30.552,57 30,57" id="Fill-493"/>
                <path d="M5,48.5859 L11,54.5859 L17,48.5859 L17,27.4139 L11.707,32.7069 C11.316,33.0979 10.684,33.0979 10.293,32.7069 L5,27.4139 L5,48.5859 Z M11,56.9999 C10.744,56.9999 10.488,56.9019 10.293,56.7069 L3.293,49.7069 C3.105,49.5199 3,49.2659 3,48.9999 L3,24.9999 C3,24.5959 3.244,24.2309 3.617,24.0759 C3.992,23.9199 4.421,24.0069 4.707,24.2929 L11,30.5859 L17.293,24.2929 C17.579,24.0069 18.007,23.9199 18.383,24.0759 C18.756,24.2309 19,24.5959 19,24.9999 L19,48.9999 C19,49.2659 18.895,49.5199 18.707,49.7069 L11.707,56.7069 C11.512,56.9019 11.256,56.9999 11,56.9999 L11,56.9999 Z" id="Fill-494"/>
                <path d="M11,57 C10.448,57 10,56.553 10,56 L10,32 C10,31.447 10.448,31 11,31 C11.552,31 12,31.447 12,32 L12,56 C12,56.553 11.552,57 11,57" id="Fill-495"/>
                <path d="M43,48.5859 L49,54.5859 L55,48.5859 L55,15.4139 L49.707,20.7069 C49.316,21.0979 48.684,21.0979 48.293,20.7069 L43,15.4139 L43,48.5859 Z M49,56.9999 C48.744,56.9999 48.488,56.9019 48.293,56.7069 L41.293,49.7069 C41.105,49.5199 41,49.2659 41,48.9999 L41,12.9999 C41,12.5959 41.244,12.2309 41.617,12.0759 C41.991,11.9189 42.42,12.0069 42.707,12.2929 L49,18.5859 L55.293,12.2929 C55.579,12.0069 56.008,11.9189 56.383,12.0759 C56.756,12.2309 57,12.5959 57,12.9999 L57,48.9999 C57,49.2659 56.895,49.5199 56.707,49.7069 L49.707,56.7069 C49.512,56.9019 49.256,56.9999 49,56.9999 L49,56.9999 Z" id="Fill-496"/>
                <path d="M49,57 C48.448,57 48,56.553 48,56 L48,20 C48,19.447 48.448,19 49,19 C49.552,19 50,19.447 50,20 L50,56 C50,56.553 49.552,57 49,57" id="Fill-497"/>
            </g>
        </g>
    </g>

	<metadata>
		<rdf:RDF xmlns:rdf="http://www.w3.org/1999/02/22-rdf-syntax-ns#" xmlns:rdfs="http://www.w3.org/2000/01/rdf-schema#" xmlns:dc="http://purl.org/dc/elements/1.1/">
			<rdf:Description about="https://iconscout.com/legal#licenses" dc:title="diagram,chart,graph,analytics" dc:description="diagram,chart,graph,analytics" dc:publisher="Iconscout" dc:date="2017-07-24" dc:format="image/svg+xml" dc:language="en">
				<dc:creator>
					<rdf:Bag>
						<rdf:li>Smashicons .</rdf:li>
					</rdf:Bag>
				</dc:creator>
			</rdf:Description>
		</rdf:RDF>
    </metadata></svg>
