<?xml version="1.0" encoding="UTF-8"?>
<svg xmlns="http://www.w3.org/2000/svg" xmlns:xlink="http://www.w3.org/1999/xlink" width="60px" height="60px" viewBox="0 0 60 60" version="1.1">
    
    <title>71 -Diagram- (Outline)</title>
    <desc>Created with Sketch.</desc>
    <defs/>
    <g id="Page-1" stroke="none" stroke-width="1" fill="none" fill-rule="evenodd">
        <g id="Icons" transform="translate(-120.000000, -1180.000000)" fill="#000000">
            <g id="71--Diagram--(Outline)" transform="translate(120.000000, 1180.000000)">
                <path d="M19,46 C17.897,46 17,46.897 17,48 L17,56 C17,57.103 17.897,58 19,58 L41,58 C42.103,58 43,57.103 43,56 L43,48 C43,46.897 42.103,46 41,46 L19,46 Z M41,60 L19,60 C16.794,60 15,58.206 15,56 L15,48 C15,45.794 16.794,44 19,44 L41,44 C43.206,44 45,45.794 45,48 L45,56 C45,58.206 43.206,60 41,60 L41,60 Z" id="Fill-774"/>
                <path d="M13,25 C11.897,25 11,25.897 11,27 L11,35 C11,36.103 11.897,37 13,37 L47,37 C48.103,37 49,36.103 49,35 L49,27 C49,25.897 48.103,25 47,25 L13,25 Z M47,39 L13,39 C10.794,39 9,37.206 9,35 L9,27 C9,24.794 10.794,23 13,23 L47,23 C49.206,23 51,24.794 51,27 L51,35 C51,37.206 49.206,39 47,39 L47,39 Z" id="Fill-775"/>
                <path d="M4,2 C2.897,2 2,2.897 2,4 L2,12 C2,13.103 2.897,14 4,14 L56,14 C57.103,14 58,13.103 58,12 L58,4 C58,2.897 57.103,2 56,2 L4,2 Z M56,16 L4,16 C1.794,16 0,14.206 0,12 L0,4 C0,1.794 1.794,0 4,0 L56,0 C58.206,0 60,1.794 60,4 L60,12 C60,14.206 58.206,16 56,16 L56,16 Z" id="Fill-776"/>
                <path d="M55,53 L44,53 C43.448,53 43,52.553 43,52 C43,51.447 43.448,51 44,51 L55,51 C56.654,51 58,49.654 58,48 L58,35 C58,33.346 56.654,32 55,32 L50,32 C49.448,32 49,31.553 49,31 C49,30.447 49.448,30 50,30 L55,30 C57.757,30 60,32.243 60,35 L60,48 C60,50.757 57.757,53 55,53" id="Fill-777"/>
                <path d="M16,53 L5,53 C2.243,53 0,50.757 0,48 L0,35 C0,32.243 2.243,30 5,30 L10,30 C10.552,30 11,30.447 11,31 C11,31.553 10.552,32 10,32 L5,32 C3.346,32 2,33.346 2,35 L2,48 C2,49.654 3.346,51 5,51 L16,51 C16.552,51 17,51.447 17,52 C17,52.553 16.552,53 16,53" id="Fill-778"/>
                <path d="M30,25 C29.448,25 29,24.553 29,24 L29,15 C29,14.447 29.448,14 30,14 C30.552,14 31,14.447 31,15 L31,24 C31,24.553 30.552,25 30,25" id="Fill-779"/>
            </g>
        </g>
    </g>

	<metadata>
		<rdf:RDF xmlns:rdf="http://www.w3.org/1999/02/22-rdf-syntax-ns#" xmlns:rdfs="http://www.w3.org/2000/01/rdf-schema#" xmlns:dc="http://purl.org/dc/elements/1.1/">
			<rdf:Description about="https://iconscout.com/legal#licenses" dc:title="diagram,chart,graph,analytics" dc:description="diagram,chart,graph,analytics" dc:publisher="Iconscout" dc:date="2017-07-24" dc:format="image/svg+xml" dc:language="en">
				<dc:creator>
					<rdf:Bag>
						<rdf:li>Smashicons .</rdf:li>
					</rdf:Bag>
				</dc:creator>
			</rdf:Description>
		</rdf:RDF>
    </metadata></svg>
