<?xml version="1.0" encoding="UTF-8"?>
<svg xmlns="http://www.w3.org/2000/svg" xmlns:xlink="http://www.w3.org/1999/xlink" width="60px" height="60px" viewBox="0 0 60 60" version="1.1">
    
    <title>81 -Diagram- (Outline)</title>
    <desc>Created with Sketch.</desc>
    <defs/>
    <g id="Page-1" stroke="none" stroke-width="1" fill="none" fill-rule="evenodd">
        <g id="Icons" transform="translate(-120.000000, -1300.000000)" fill="#000000">
            <g id="81--Diagram--(Outline)" transform="translate(120.000000, 1300.000000)">
                <path d="M2.1304,34 C3.8934,46.324 13.6934,56.123 26.0004,57.871 L26.0004,45.799 C20.2874,44.352 15.6844,39.746 14.2044,34 L2.1304,34 Z M27.0004,60 C26.9664,60 26.9324,59.998 26.8994,59.995 C12.7704,58.559 1.4604,47.249 0.0054,33.103 C-0.0236,32.82 0.0674,32.54 0.2574,32.33 C0.4474,32.12 0.7164,32 1.0004,32 L15.0004,32 C15.4754,32 15.8854,32.335 15.9804,32.801 C17.1184,38.409 21.6254,42.918 27.1934,44.019 C27.6624,44.111 28.0004,44.522 28.0004,45 L28.0004,59 C28.0004,59.283 27.8804,59.553 27.6704,59.742 C27.4854,59.909 27.2464,60 27.0004,60 L27.0004,60 Z" id="Fill-677"/>
                <path d="M34,45.7988 L34,57.8708 C46.307,56.1238 56.107,46.3238 57.87,33.9998 L45.796,33.9998 C44.316,39.7458 39.713,44.3518 34,45.7988 M33,59.9998 C32.753,59.9998 32.514,59.9088 32.33,59.7418 C32.12,59.5528 32,59.2828 32,58.9998 L32,44.9998 C32,44.5228 32.337,44.1118 32.806,44.0188 C38.375,42.9178 42.882,38.4088 44.02,32.8008 C44.115,32.3348 44.524,31.9998 45,31.9998 L59,31.9998 C59.283,31.9998 59.553,32.1198 59.742,32.3298 C59.932,32.5398 60.024,32.8198 59.995,33.1028 C58.54,47.2498 47.229,58.5598 33.101,59.9948 C33.067,59.9978 33.034,59.9998 33,59.9998" id="Fill-678"/>
                <path d="M2.1304,26 L14.2044,26 C15.6844,20.254 20.2874,15.648 26.0004,14.201 L26.0004,2.129 C13.6934,3.876 3.8934,13.676 2.1304,26 M15.0004,28 L1.0004,28 C0.7164,28 0.4474,27.88 0.2574,27.67 C0.0674,27.46 -0.0236,27.18 0.0054,26.897 C1.4604,12.75 12.7704,1.44 26.8994,0.005 C27.1774,-0.021 27.4604,0.068 27.6704,0.258 C27.8804,0.447 28.0004,0.717 28.0004,1 L28.0004,15 C28.0004,15.478 27.6624,15.889 27.1934,15.981 C21.6254,17.082 17.1184,21.591 15.9804,27.199 C15.8854,27.665 15.4754,28 15.0004,28" id="Fill-679"/>
                <path d="M45.7959,26 L57.8699,26 C56.1069,13.676 46.3069,3.876 33.9999,2.129 L33.9999,14.201 C39.7129,15.648 44.3169,20.254 45.7959,26 M58.9999,28 L44.9999,28 C44.5249,28 44.1149,27.665 44.0199,27.199 C42.8819,21.591 38.3749,17.082 32.8059,15.981 C32.3379,15.889 31.9999,15.478 31.9999,15 L31.9999,1 C31.9999,0.717 32.1199,0.447 32.3299,0.258 C32.5399,0.068 32.8199,-0.021 33.1009,0.005 C47.2299,1.44 58.5399,12.75 59.9949,26.897 C60.0239,27.18 59.9319,27.46 59.7419,27.67 C59.5529,27.88 59.2829,28 58.9999,28" id="Fill-680"/>
                <path d="M25,23 C23.897,23 23,23.897 23,25 C23,26.103 23.897,27 25,27 C26.103,27 27,26.103 27,25 C27,23.897 26.103,23 25,23 M25,29 C22.794,29 21,27.206 21,25 C21,22.794 22.794,21 25,21 C27.206,21 29,22.794 29,25 C29,27.206 27.206,29 25,29" id="Fill-681"/>
                <path d="M35,23 C33.897,23 33,23.897 33,25 C33,26.103 33.897,27 35,27 C36.103,27 37,26.103 37,25 C37,23.897 36.103,23 35,23 M35,29 C32.794,29 31,27.206 31,25 C31,22.794 32.794,21 35,21 C37.206,21 39,22.794 39,25 C39,27.206 37.206,29 35,29" id="Fill-682"/>
                <path d="M25,33 C23.897,33 23,33.897 23,35 C23,36.103 23.897,37 25,37 C26.103,37 27,36.103 27,35 C27,33.897 26.103,33 25,33 M25,39 C22.794,39 21,37.206 21,35 C21,32.794 22.794,31 25,31 C27.206,31 29,32.794 29,35 C29,37.206 27.206,39 25,39" id="Fill-683"/>
                <path d="M35,33 C33.897,33 33,33.897 33,35 C33,36.103 33.897,37 35,37 C36.103,37 37,36.103 37,35 C37,33.897 36.103,33 35,33 M35,39 C32.794,39 31,37.206 31,35 C31,32.794 32.794,31 35,31 C37.206,31 39,32.794 39,35 C39,37.206 37.206,39 35,39" id="Fill-684"/>
            </g>
        </g>
    </g>

	<metadata>
		<rdf:RDF xmlns:rdf="http://www.w3.org/1999/02/22-rdf-syntax-ns#" xmlns:rdfs="http://www.w3.org/2000/01/rdf-schema#" xmlns:dc="http://purl.org/dc/elements/1.1/">
			<rdf:Description about="https://iconscout.com/legal#licenses" dc:title="diagram,chart,graph,analytics" dc:description="diagram,chart,graph,analytics" dc:publisher="Iconscout" dc:date="2017-07-24" dc:format="image/svg+xml" dc:language="en">
				<dc:creator>
					<rdf:Bag>
						<rdf:li>Smashicons .</rdf:li>
					</rdf:Bag>
				</dc:creator>
			</rdf:Description>
		</rdf:RDF>
    </metadata></svg>
