<?xml version="1.0" encoding="utf-8"?>
<!-- Generator: Adobe Illustrator 21.1.0, SVG Export Plug-In . SVG Version: 6.00 Build 0)  -->
<svg version="1.1" id="Layer_1" xmlns="http://www.w3.org/2000/svg" xmlns:xlink="http://www.w3.org/1999/xlink" x="0px" y="0px"
	 viewBox="0 0 60 60" style="enable-background:new 0 0 60 60;" xml:space="preserve">
<desc>Created with Sketch.</desc>
<g id="Page-1">
	<g id="Icons" transform="translate(-360.000000, -700.000000)">
		<g id="_x33_3--Graph-Presentation--_x28_Outline_x29_" transform="translate(360.000000, 700.000000)">
			<path id="Fill-305" d="M4,57c-0.6,0-1-0.4-1-1V1c0-0.6,0.4-1,1-1s1,0.4,1,1v55C5,56.6,4.6,57,4,57"/>
			<path id="Fill-306" d="M7,5C6.7,5,6.5,4.9,6.3,4.7L4,2.4L1.7,4.7c-0.4,0.4-1,0.4-1.4,0c-0.4-0.4-0.4-1,0-1.4l3-3
				c0.4-0.4,1-0.4,1.4,0l3,3c0.4,0.4,0.4,1,0,1.4C7.5,4.9,7.3,5,7,5"/>
			<path id="Fill-307" d="M59,57H4c-0.6,0-1-0.4-1-1s0.4-1,1-1h55c0.6,0,1,0.4,1,1S59.6,57,59,57"/>
			<path id="Fill-308" d="M56,60c-0.3,0-0.5-0.1-0.7-0.3c-0.4-0.4-0.4-1,0-1.4l2.3-2.3l-2.3-2.3c-0.4-0.4-0.4-1,0-1.4
				c0.4-0.4,1-0.4,1.4,0l3,3c0.4,0.4,0.4,1,0,1.4l-3,3C56.5,59.9,56.3,60,56,60"/>
			<path id="Fill-348" d="M10,50h6V16h-6V50z M17,52H9c-0.6,0-1-0.4-1-1V15c0-0.6,0.4-1,1-1h8c0.6,0,1,0.4,1,1v36
				C18,51.6,17.6,52,17,52L17,52z"/>
			<path id="Fill-349" d="M18,50h6V24h-6V50z M25,52h-8c-0.6,0-1-0.4-1-1V23c0-0.6,0.4-1,1-1h8c0.6,0,1,0.4,1,1v28
				C26,51.6,25.6,52,25,52L25,52z"/>
			<path id="Fill-350" d="M26,50h6V20h-6V50z M33,52h-8c-0.6,0-1-0.4-1-1V19c0-0.6,0.4-1,1-1h8c0.6,0,1,0.4,1,1v32
				C34,51.6,33.6,52,33,52L33,52z"/>
			<path id="Fill-351" d="M34,50h6V14h-6V50z M41,52h-8c-0.6,0-1-0.4-1-1V13c0-0.6,0.4-1,1-1h8c0.6,0,1,0.4,1,1v38
				C42,51.6,41.6,52,41,52L41,52z"/>
		</g>
	</g>
</g>
</svg>
