<?xml version="1.0" encoding="utf-8"?>
<!-- Generator: Adobe Illustrator 21.1.0, SVG Export Plug-In . SVG Version: 6.00 Build 0)  -->
<svg version="1.1" id="Layer_1" xmlns="http://www.w3.org/2000/svg" xmlns:xlink="http://www.w3.org/1999/xlink" x="0px" y="0px"
	 viewBox="0 0 60 60" style="enable-background:new 0 0 60 60;" xml:space="preserve">

<desc>Created with Sketch.</desc>
<g id="Page-1">
	<g id="Icons" transform="translate(-720.000000, -700.000000)">
		<g id="_x33_6--Graph-Presentation--_x28_Outline_x29_" transform="translate(720.000000, 700.000000)">
			<path id="Fill-327" d="M4,57c-0.6,0-1-0.4-1-1V1c0-0.6,0.4-1,1-1s1,0.4,1,1v55C5,56.6,4.6,57,4,57"/>
			<path id="Fill-328" d="M7,5C6.7,5,6.5,4.9,6.3,4.7L4,2.4L1.7,4.7c-0.4,0.4-1,0.4-1.4,0c-0.4-0.4-0.4-1,0-1.4l3-3
				c0.4-0.4,1-0.4,1.4,0l3,3c0.4,0.4,0.4,1,0,1.4C7.5,4.9,7.3,5,7,5"/>
			<path id="Fill-329" d="M59,57H4c-0.6,0-1-0.4-1-1s0.4-1,1-1h55c0.6,0,1,0.4,1,1S59.6,57,59,57"/>
			<path id="Fill-330" d="M56,60c-0.3,0-0.5-0.1-0.7-0.3c-0.4-0.4-0.4-1,0-1.4l2.3-2.3l-2.3-2.3c-0.4-0.4-0.4-1,0-1.4
				c0.4-0.4,1-0.4,1.4,0l3,3c0.4,0.4,0.4,1,0,1.4l-3,3C56.5,59.9,56.3,60,56,60"/>
			<path id="Fill-360" d="M11,49h18c-0.2-12.5-4.6-29-9-29C15.7,20,11.2,36.5,11,49 M30,51H10c-0.6,0-1-0.4-1-1c0-8.8,3.4-32,11-32
				s11,23.2,11,32C31,50.6,30.6,51,30,51"/>
			<path id="Fill-361" d="M38,49h6c-0.2-5.3-2-11-3-11C40,38,38.2,43.7,38,49 M45,51h-8c-0.6,0-1-0.4-1-1c0-3.1,1.2-14,5-14
				c3.8,0,5,10.9,5,14C46,50.6,45.6,51,45,51"/>
			<path id="Fill-362" d="M37.6,45.1c-0.5,0-0.9-0.4-1-0.9C35.5,34.8,32.8,29,31,29c-0.8,0-1.7,1.1-2.5,2.9
				c-0.2,0.5-0.8,0.7-1.3,0.5c-0.5-0.2-0.7-0.8-0.5-1.3c1.3-2.7,2.7-4.1,4.4-4.1c5.2,0,7.2,14.2,7.6,17c0.1,0.5-0.3,1-0.9,1.1
				C37.7,45.1,37.6,45.1,37.6,45.1"/>
			<path id="Fill-363" d="M37,51h-7c-0.6,0-1-0.4-1-1s0.4-1,1-1h7c0.6,0,1,0.4,1,1S37.6,51,37,51"/>
			<path id="Fill-364" d="M55,51H45c-0.6,0-1-0.4-1-1s0.4-1,1-1h9c-0.2-7.6-2.9-17-5-17c-1.1,0-3,3.5-4.2,9.9
				c-0.1,0.5-0.6,0.9-1.2,0.8c-0.5-0.1-0.9-0.6-0.8-1.2c1-5.2,2.8-11.5,6.1-11.5c4.9,0,7,14.3,7,20C56,50.6,55.6,51,55,51"/>
		</g>
	</g>
</g>
</svg>
