<?xml version="1.0" encoding="iso-8859-1"?>
<svg xmlns="http://www.w3.org/2000/svg" xmlns:xlink="http://www.w3.org/1999/xlink" version="1.1" id="Pie-chart-15" x="0px" y="0px" viewBox="0 0 32 32" style="enable-background:new 0 0 32 32;" xml:space="preserve">
<path d="M16,0C7.178,0,0,7.178,0,16s7.178,16,16,16s16-7.178,16-16S24.822,0,16,0z M29.949,15H22.92  C22.48,11.941,20.059,9.52,17,9.08V2.051C23.921,2.543,29.457,8.079,29.949,15z M16,21c-2.757,0-5-2.243-5-5s2.243-5,5-5  s5,2.243,5,5S18.757,21,16,21z M2,16C2,8.618,7.747,2.567,15,2.051V9.08C11.613,9.568,9,12.481,9,16s2.613,6.432,6,6.92v7.029  C7.747,29.433,2,23.382,2,16z M17,29.949V22.92c3.059-0.441,5.48-2.861,5.92-5.92h7.029C29.457,23.921,23.921,29.457,17,29.949z"/>

	<metadata>
		<rdf:RDF xmlns:rdf="http://www.w3.org/1999/02/22-rdf-syntax-ns#" xmlns:rdfs="http://www.w3.org/2000/01/rdf-schema#" xmlns:dc="http://purl.org/dc/elements/1.1/">
			<rdf:Description about="https://iconscout.com/legal#licenses" dc:title="Pie-chart-15" dc:description="Pie-chart-15" dc:publisher="Iconscout" dc:date="2017-02-16" dc:format="image/svg+xml" dc:language="en">
				<dc:creator>
					<rdf:Bag>
						<rdf:li>Unlimit Icon</rdf:li>
					</rdf:Bag>
				</dc:creator>
			</rdf:Description>
		</rdf:RDF>
    </metadata></svg>
