<?xml version="1.0" encoding="UTF-8"?>
<svg xmlns="http://www.w3.org/2000/svg" xmlns:xlink="http://www.w3.org/1999/xlink" width="60px" height="60px" viewBox="0 0 60 60" version="1.1">
    
    <title>19 -Pie Chart- (Outline)</title>
    <desc>Created with Sketch.</desc>
    <defs/>
    <g id="Page-1" stroke="none" stroke-width="1" fill="none" fill-rule="evenodd">
        <g id="Icons" transform="translate(-1080.000000, -460.000000)" fill="#000000">
            <g id="19--Pie-Chart--(Outline)" transform="translate(1080.000000, 460.000000)">
                <path d="M33.0001,28.1748 L54.8181,42.9578 C56.9021,38.9728 58.0001,34.5148 58.0001,29.9998 C58.0001,15.6538 47.1041,3.5978 33.0001,2.0918 L33.0001,28.1748 Z M55.1671,45.4028 C54.9691,45.4028 54.7731,45.3428 54.6061,45.2298 L31.4391,29.5328 C31.1641,29.3468 31.0001,29.0368 31.0001,28.7048 L31.0001,0.9998 C31.0001,0.7228 31.1151,0.4588 31.3171,0.2688 C31.5201,0.0798 31.7831,-0.0162 32.0681,0.0028 C47.7301,1.0708 60.0001,14.2468 60.0001,29.9998 C60.0001,35.2248 58.6291,40.3778 56.0341,44.8998 C55.8961,45.1408 55.6631,45.3138 55.3931,45.3768 C55.3171,45.3938 55.2421,45.4028 55.1671,45.4028 L55.1671,45.4028 Z" id="Fill-67"/>
                <path d="M27.0001,2.0913 C12.8961,3.5983 2.0001,15.6543 2.0001,30.0003 C2.0001,34.5153 3.0981,38.9723 5.1821,42.9583 L27.0001,28.1743 L27.0001,2.0913 Z M4.8331,45.4023 C4.7581,45.4023 4.6831,45.3943 4.6071,45.3763 C4.3371,45.3143 4.1041,45.1413 3.9661,44.9003 C1.3711,40.3773 0.0001,35.2253 0.0001,30.0003 C0.0001,14.2463 12.2701,1.0703 27.9321,0.0023 C28.2231,-0.0147 28.4801,0.0803 28.6831,0.2693 C28.8851,0.4583 29.0001,0.7233 29.0001,1.0003 L29.0001,28.7053 C29.0001,29.0363 28.8361,29.3463 28.5611,29.5323 L5.3941,45.2303 C5.2271,45.3433 5.0311,45.4023 4.8331,45.4023 L4.8331,45.4023 Z" id="Fill-69"/>
                <path d="M8.5118,47.9424 C13.8568,54.3484 21.6288,58.0004 29.9998,58.0004 C38.3708,58.0004 46.1438,54.3484 51.4888,47.9424 L29.9998,33.2124 L8.5118,47.9424 Z M29.9998,60.0004 C20.6518,60.0004 12.0008,55.7504 6.2658,48.3394 C6.0978,48.1224 6.0268,47.8444 6.0688,47.5724 C6.1118,47.3004 6.2648,47.0584 6.4908,46.9024 L29.4348,31.1754 C29.7748,30.9424 30.2258,30.9424 30.5658,31.1754 L53.5088,46.9024 C53.7358,47.0584 53.8888,47.3004 53.9318,47.5724 C53.9738,47.8444 53.9028,48.1224 53.7348,48.3394 C47.9988,55.7504 39.3488,60.0004 29.9998,60.0004 L29.9998,60.0004 Z" id="Fill-71"/>
            </g>
        </g>
    </g>

	<metadata>
		<rdf:RDF xmlns:rdf="http://www.w3.org/1999/02/22-rdf-syntax-ns#" xmlns:rdfs="http://www.w3.org/2000/01/rdf-schema#" xmlns:dc="http://purl.org/dc/elements/1.1/">
			<rdf:Description about="https://iconscout.com/legal#licenses" dc:title="pie,chart,graph,analytics" dc:description="pie,chart,graph,analytics" dc:publisher="Iconscout" dc:date="2017-07-24" dc:format="image/svg+xml" dc:language="en">
				<dc:creator>
					<rdf:Bag>
						<rdf:li>Smashicons .</rdf:li>
					</rdf:Bag>
				</dc:creator>
			</rdf:Description>
		</rdf:RDF>
    </metadata></svg>
