<?xml version="1.0" encoding="UTF-8"?>
<svg xmlns="http://www.w3.org/2000/svg" xmlns:xlink="http://www.w3.org/1999/xlink" width="60px" height="60px" viewBox="0 0 60 60" version="1.1">
    
    <title>2 -Pie Chart- (Outline)</title>
    <desc>Created with Sketch.</desc>
    <defs/>
    <g id="Page-1" stroke="none" stroke-width="1" fill="none" fill-rule="evenodd">
        <g id="Icons" transform="translate(-240.000000, -340.000000)" fill="#000000">
            <g id="2--Pie-Chart--(Outline)" transform="translate(240.000000, 340.000000)">
                <path d="M33,28.1743 L54.818,42.9573 C56.903,38.9703 58,34.5133 58,30.0003 C58,15.6543 47.104,3.5983 33,2.0913 L33,28.1743 Z M55.167,45.4023 C54.969,45.4023 54.773,45.3423 54.606,45.2293 L31.439,29.5323 C31.165,29.3463 31,29.0363 31,28.7043 L31,1.0003 C31,0.7233 31.115,0.4583 31.317,0.2693 C31.52,0.0803 31.793,-0.0167 32.068,0.0023 C47.731,1.0703 60,14.2463 60,30.0003 C60,35.2233 58.629,40.3753 56.035,44.8993 C55.896,45.1403 55.664,45.3133 55.393,45.3763 C55.318,45.3933 55.242,45.4023 55.167,45.4023 L55.167,45.4023 Z" id="Fill-392"/>
                <path d="M27,2.0913 C12.896,3.5983 2,15.6543 2,29.9993 C2,34.5133 3.097,38.9703 5.182,42.9573 L27,28.1743 L27,2.0913 Z M4.833,45.4023 C4.758,45.4023 4.682,45.3933 4.607,45.3763 C4.336,45.3133 4.104,45.1403 3.965,44.8993 C1.371,40.3753 0,35.2233 0,29.9993 C0,14.2463 12.269,1.0703 27.932,0.0023 C28.208,-0.0157 28.481,0.0803 28.683,0.2693 C28.885,0.4583 29,0.7233 29,1.0003 L29,28.7043 C29,29.0363 28.835,29.3463 28.561,29.5323 L5.394,45.2293 C5.227,45.3423 5.031,45.4023 4.833,45.4023 L4.833,45.4023 Z" id="Fill-393"/>
                <path d="M8.5123,47.9414 C13.8573,54.3474 21.6293,58.0004 30.0003,58.0004 C38.3713,58.0004 46.1433,54.3474 51.4883,47.9414 L30.0003,33.2124 L8.5123,47.9414 Z M30.0003,60.0004 C20.6523,60.0004 12.0013,55.7494 6.2663,48.3384 C6.0973,48.1214 6.0263,47.8434 6.0693,47.5714 C6.1123,47.2994 6.2643,47.0574 6.4913,46.9014 L29.4343,31.1754 C29.7753,30.9414 30.2243,30.9414 30.5653,31.1754 L53.5083,46.9014 C53.7353,47.0574 53.8883,47.2994 53.9303,47.5714 C53.9733,47.8434 53.9023,48.1214 53.7343,48.3384 C47.9993,55.7494 39.3483,60.0004 30.0003,60.0004 L30.0003,60.0004 Z" id="Fill-394"/>
                <path d="M32,15.377 C31.744,15.377 31.488,15.279 31.293,15.084 C30.902,14.693 30.902,14.061 31.293,13.67 L41.822,3.141 C42.213,2.75 42.846,2.75 43.236,3.141 C43.627,3.531 43.627,4.164 43.236,4.555 L32.707,15.084 C32.512,15.279 32.256,15.377 32,15.377" id="Fill-407"/>
                <path d="M32,29.519 C31.744,29.519 31.488,29.421 31.293,29.226 C30.902,28.835 30.902,28.203 31.293,27.812 L50.049,9.056 C50.44,8.665 51.073,8.665 51.463,9.056 C51.854,9.446 51.854,10.079 51.463,10.47 L32.707,29.226 C32.512,29.421 32.256,29.519 32,29.519" id="Fill-408"/>
                <path d="M40.3194,35.3418 C40.0634,35.3418 39.8074,35.2438 39.6124,35.0488 C39.2214,34.6578 39.2214,34.0258 39.6124,33.6348 L55.7754,17.4718 C56.1664,17.0808 56.7984,17.0808 57.1894,17.4718 C57.5804,17.8628 57.5804,18.4948 57.1894,18.8858 L41.0264,35.0488 C40.8314,35.2438 40.5754,35.3418 40.3194,35.3418" id="Fill-409"/>
                <path d="M48.7496,41.0537 C48.4936,41.0537 48.2376,40.9557 48.0426,40.7607 C47.6516,40.3697 47.6516,39.7377 48.0426,39.3467 L58.2886,29.1007 C58.6786,28.7107 59.3116,28.7107 59.7026,29.1007 C60.0926,29.4917 60.0926,30.1247 59.7026,30.5147 L49.4566,40.7607 C49.2616,40.9557 49.0056,41.0537 48.7496,41.0537" id="Fill-410"/>
            </g>
        </g>
    </g>

	<metadata>
		<rdf:RDF xmlns:rdf="http://www.w3.org/1999/02/22-rdf-syntax-ns#" xmlns:rdfs="http://www.w3.org/2000/01/rdf-schema#" xmlns:dc="http://purl.org/dc/elements/1.1/">
			<rdf:Description about="https://iconscout.com/legal#licenses" dc:title="pie,chart,graph,analytics" dc:description="pie,chart,graph,analytics" dc:publisher="Iconscout" dc:date="2017-07-24" dc:format="image/svg+xml" dc:language="en">
				<dc:creator>
					<rdf:Bag>
						<rdf:li>Smashicons .</rdf:li>
					</rdf:Bag>
				</dc:creator>
			</rdf:Description>
		</rdf:RDF>
    </metadata></svg>
